{
  "status": "ok",
  "totalResults": 10,
  "articles": [
    {
      "source": {
        "id": "techcrunch",
        "name": "TechCrunch"
      },
      "author": "Kyle Wiggers",
      "title": "Women In AI: Krystal Kauffman, research fellow at the Distributed AI Research Institute | TechCrunch",
      "description": "Krystal Kauffman, profiled as part of TechCrunch's series on women in AI, is a research fellow at the Distributed AI Research Institute.",
      "url": "https://techcrunch.com/2024/02/22/women-in-ai-krystal-kauffman-research-fellow-at-the-distributed-ai-research-institute/",
      "urlToImage": "https://techcrunch.com/wp-content/uploads/2024/02/women-in-ai-Kauffman.jpg?resize=1200,675",
      "publishedAt": "2024-02-22T15:20:45Z",
      "content": "To give AI-focused women academics and others their well-deserved — and overdue — time in the spotlight, TechCrunch is launching a series of interviews focusing on remarkable women who’ve contributed… [+4339 chars]"
    },
    {
      "source": {
        "id": "techcrunch",
        "name": "TechCrunch"
      },
      "author": "Kyle Wiggers and Dominic-Madori Davis",
      "title": "The women in AI making a difference | TechCrunch",
      "description": "As a part of a multi-part series, TechCrunch is highlighting women innovators -- from academics to policymakers -- in the field of AI.",
      "url": "https://techcrunch.com/2024/02/22/the-women-in-ai-making-a-difference/",
      "urlToImage": "https://techcrunch.com/wp-content/uploads/2024/02/women-in-ai-cover.jpg?resize=1200,675",
      "publishedAt": "2024-02-22T15:18:40Z",
      "content": "To give AI-focused women academics and others their well-deserved — and overdue — time in the spotlight, TechCrunch is launching a series of interviews focusing on remarkable women who’ve contributed… [+4397 chars]"
    },
    {
      "source": {
        "id": "techcrunch",
        "name": "TechCrunch"
      },
      "author": "Dominic-Madori Davis",
      "title": "Hellohive is tackling hiring discrimination as more equitable hiring companies emerge | TechCrunch",
      "description": "Hellohive announced on Thursday a $3.4 million Series A round to help combat discrimination during the hiring process.",
      "url": "https://techcrunch.com/2024/02/22/hellohive-equitable-hiring-diversity/",
      "urlToImage": "https://techcrunch.com/wp-content/uploads/2024/02/yMWT83Jw.jpg?resize=1200,800",
      "publishedAt": "2024-02-22T14:36:23Z",
      "content": "Resume and recruitment platform Hellohive seeks to help eliminate hiring bias by creating a virtual community that includes employers and those looking for a new role.\r\nThe company is part of an incr… [+2687 chars]"
    },
    {
      "source": {
        "id": "techcrunch",
        "name": "TechCrunch"
      },
      "author": "Lauren Forristal",
      "title": "Grifin’s new model can automatically invest your money as you shop | TechCrunch",
      "description": "Investing app Grifin today officially launched its anticipated investing model called “Adaptive Investing,” which enables you to automatically invest in Investing app Grifin today officially launched its anticipated investing model called “Adaptive Investing,…",
      "url": "https://techcrunch.com/2024/02/22/grifins-new-model-can-automatically-invest-your-money-as-you-shop/",
      "urlToImage": "https://techcrunch.com/wp-content/uploads/2024/02/Grifin-co-founders.jpg?resize=1200,960",
      "publishedAt": "2024-02-22T13:47:34Z",
      "content": "Investing app Grifin today officially launched its anticipated investing model called Adaptive Investing, which enables you to automatically invest in your favorite brands that you frequently shop fr… [+3564 chars]"
    },
    {
      "source": {
        "id": "techcrunch",
        "name": "TechCrunch"
      },
      "author": "Natasha Lomas",
      "title": "Google pauses AI tool Gemini's ability to generate images of people after historical inaccuracies | TechCrunch",
      "description": "Google says it's temporarily suspended the ability of Gemini, its flagship generative AI suite of models, to generate images of people while it works on Google says it's temporarily suspended the ability of Gemini, its flagship generative AI suite of models, …",
      "url": "https://techcrunch.com/2024/02/22/google-gemini-image-pause-people/",
      "urlToImage": "https://techcrunch.com/wp-content/uploads/2023/02/glitched-google-logo.jpg?resize=1200,645",
      "publishedAt": "2024-02-22T13:28:42Z",
      "content": "Google says it’s temporarily suspended the ability of Gemini, its flagship generative AI suite of models, to generate images of people while it works on updating the model to improve the historical a… [+2267 chars]"
    },
    {
      "source": {
        "id": "techcrunch",
        "name": "TechCrunch"
      },
      "author": "Ivan Mehta",
      "title": "TikTok launches its 'Add to Music app' feature available in over 160 countries | TechCrunch",
      "description": "TikTok's \"Add to Music app\" feature, which lets users add a song playing on a clip to Apple Music and Spotify, is available in 163 countries.",
      "url": "https://techcrunch.com/2024/02/22/tiktok-launches-its-add-to-music-app-feature-available-in-over-160-countries/",
      "urlToImage": "https://techcrunch.com/wp-content/uploads/2023/11/AddToMusicAppiOS.jpeg?resize=1200,675",
      "publishedAt": "2024-02-22T13:16:21Z",
      "content": "TikTok announced today that it is launching its “Add to Music app” feature, which lets users add a song playing on a clip to services like Apple Music and Spotify, in 163 new countries.\r\nThese new re… [+1604 chars]"
    },
    {
      "source": {
        "id": "techcrunch",
        "name": "TechCrunch"
      },
      "author": "Ivan Mehta",
      "title": "Meta's Oversight Board extends its scope to Threads | TechCrunch",
      "description": "The Oversight Board announced today that it is expanding its scope to Threads along with Facebook and Instagram to scrutinize Meta's content moderation decisions.",
      "url": "https://techcrunch.com/2024/02/22/the-oversight-board-extends-its-scope-to-metas-threads-app/",
      "urlToImage": "https://techcrunch.com/wp-content/uploads/2024/02/Instagram-Threads-GettyImages-1795093602.jpeg?resize=1200,728",
      "publishedAt": "2024-02-22T11:00:30Z",
      "content": "Meta’s external advisory group, its Oversight Board, announced today that it is expanding its scope to Threads along with Facebook and Instagram to scrutinize Meta’s content moderation decisions.\r\nTh… [+3820 chars]"
    },
    {
      "source": {
        "id": "techcrunch",
        "name": "TechCrunch"
      },
      "author": "Kyle Wiggers",
      "title": "DatologyAI is building tech to automatically curate AI training data sets | TechCrunch",
      "description": "A new startup, DatologyAI, claims to be able to automatically curate the massive data sets on which AI models train.",
      "url": "https://techcrunch.com/2024/02/22/datologyai-is-building-tech-to-automatically-curate-ai-training-data-sets/",
      "urlToImage": "https://techcrunch.com/wp-content/uploads/2020/12/GettyImages-1148091243.jpg?resize=1200,675",
      "publishedAt": "2024-02-22T04:50:13Z",
      "content": "Massive training data sets are the gateway to powerful AI models — but often, also those models’ downfall.\r\nBiases emerge from prejudicial patterns concealed in large data sets, like pictures of most… [+7869 chars]"
    },
    {
      "source": {
        "id": "techcrunch",
        "name": "TechCrunch"
      },
      "author": "Christine Hall",
      "title": "Golden Ventures secures another $100M to invest in Canada’s tech ecosystem | TechCrunch",
      "description": "Golden Ventures' fifth fund targets seed-stage founders working across technologies, including AI, climate, blockchain and quantum.",
      "url": "https://techcrunch.com/2024/02/22/golden-ventures-100m-canada-tech-venture-capital/",
      "urlToImage": "https://techcrunch.com/wp-content/uploads/2024/02/Golden-Team-Photo-2023-High-Res.jpg?resize=1200,674",
      "publishedAt": "2024-02-22T04:29:13Z",
      "content": "Golden Ventures, a Canada-based venture capital firm, closed on over $100 million in capital commitments for its fifth fund targeting high-potential, seed-stage founders working across technologies, … [+2596 chars]"
    },
    {
      "source": {
        "id": "techcrunch",
        "name": "TechCrunch"
      },
      "author": "Christine Hall",
      "title": "AddGlow takes on Reddit, Facebook with community-building software for brands | TechCrunch",
      "description": "The New York-based startup collects data on customer attributes in order to personalize the homepage or targeted messages.",
      "url": "https://techcrunch.com/2024/02/22/addglow-reddit-community-brands-e-commerce/",
      "urlToImage": "https://techcrunch.com/wp-content/uploads/2024/02/InaHerlihyAddGlow-horizontal.jpg?resize=1200,675",
      "publishedAt": "2024-02-21T23:18:51Z",
      "content": "Ina Herlihy believes e-commerce brands are losing out on organic traffic and potential revenue by relying on third-party community sites, like Reddit and Facebook Groups.\r\nAs new user acquisition cos… [+3284 chars]"
    }
  ]
}
